%YAML 1.1
%TAG !u! tag:unity3d.com,2011:
--- !u!114 &11400000
MonoBehaviour:
  m_ObjectHideFlags: 0
  m_CorrespondingSourceObject: {fileID: 0}
  m_PrefabInstance: {fileID: 0}
  m_PrefabAsset: {fileID: 0}
  m_GameObject: {fileID: 0}
  m_Enabled: 1
  m_EditorHideFlags: 0
  m_Script: {fileID: 11500000, guid: ebb9f53fcf91ed94b8a69e80c38b7ea0, type: 3}
  m_Name: Wave1
  m_EditorClassIdentifier: 
  rewardType: 0
  MiniWaveList:
  - enemySettingList:
    - enemyType: {fileID: 6218345751360208741, guid: 33139be31aab179419ee2c406d1e3d37, type: 3}
      enemyCount: 5
